{
    "distributions": {
        "dipoles": {
            "parameters": {
                "seed": 0,
                "length": 2,
                "nsub": 2,
                "pairs": 1,
                "side": 1
            },
            "returns": {
                "positions": [
                    [
                        1.3002421,
                        -0.45582024,
                        0.95630627,
                        -0.69738952,
                        1.8811075,
                        -0.097308957,
                        1.7912574,
                        -0.20787541
                    ],
                    [
                        -0.09962625,
                        0.85758065,
                        0.19321176,
                        1.318063,
                        0.0051400308,
                        0.2981727,
                        0.98350057,
                        0.92461232
                    ]
                ],
                "senses": [
                    -1,
                    1,
                    -1,
                    1,
                    -1,
                    1,
                    -1,
                    1
                ],
                "density": 8
            }
        },
        "images": {
            "parameters": {
                "seed": 0,
                "number": 4,
                "radius": 1
            },
            "returns": {
                "positions": [
                    [
                        0.11249001,
                        2.778603,
                        0.62142194,
                        1.5346247,
                        0.20734904,
                        0.21424782,
                        -0.44609175,
                        -0.88389809
                    ],
                    [
                        -0.16682438,
                        -4.12071,
                        -0.13699965,
                        -0.33832577,
                        -0.96166853,
                        -0.99366454,
                        0.5528915,
                        1.095514
                    ]
                ],
                "senses": [
                    1,
                    -1,
                    1,
                    -1,
                    1,
                    -1,
                    -1,
                    1
                ],
                "density": 1.2732395
            }
        },
        "wilkens": {
            "parameters": {
                "seed": 0,
                "nsub": 2,
                "pairs": 1,
                "side": 1
            },
            "returns": {
                "positions": [
                    [
                        0.42221093,
                        0.21028579,
                        0.25563736,
                        0.39189929,
                        0.73829848,
                        0.95405644,
                        0.64091892,
                        0.8091845
                    ],
                    [
                        0.3789772,
                        0.12945838,
                        0.70246707,
                        0.65165636,
                        0.29169102,
                        0.25234343,
                        0.8779021,
                        0.62525317
                    ]
                ],
                "senses": [
                    -1,
                    1,
                    -1,
                    1,
                    -1,
                    1,
                    -1,
                    1
                ],
                "density": 8
            }
        }
    },
    "diffractometers": {
        "cpu": {
            "parameters-screw": {
                "sample": {
                    "distribution": {
                        "module": "numlpa.kits.distributions.wilkens",
                        "seed": 0,
                        "density": 8.0,
                        "nsub": 2,
                        "pairs": 1,
                        "side": 1
                    },
                    "region": {
                        "type": "square",
                        "side": 1
                    },
                    "dislocations": {
                        "senses": [
                            -1,
                            1,
                            -1,
                            1,
                            -1,
                            1,
                            -1,
                            1
                        ],
                        "positions": [
                            [
                                0.42221092576252406,
                                0.2102857904154225,
                                0.25563736068430426,
                                0.3918992945173863,
                                0.7382984770761779,
                                0.9540564425976676,
                                0.6409189221998519,
                                0.8091844983376658
                            ], [
                                0.37897720147015124,
                                0.12945837514648167,
                                0.7024670687252071,
                                0.6516563630394637,
                                0.2916910197275156,
                                0.25234342790869513,
                                0.877902102078612,
                                0.6252531706812203
                            ]
                        ]
                    }
                },
                "z_uvw": [ 1, 1, 0],
                "b_uvw": [ 1, 1, 0],
                "g_hkl": [ 2, 0, 0],
                "cell": 0.5,
                "step": 1,
                "range": 8,
                "absolute": true,
                "points": 10,
                "poisson": 0.345,
                "harmonics": [1, 3],
                "processes": 0,
                "replications": 1
            },
            "returns-screw": {
                "contrast": 0.25,
                "coefs": {
                    "harmonic": [
                        1,
                        3
                    ],
                    "variable": [
                        1,
                        2,
                        3,
                        4,
                        5,
                        6,
                        7,
                        8
                    ],
                    "cos_mean": [
                        [
                            0.26204691,
                            0.22505754,
                            0.41779434,
                            0.44837609,
                            0.46393145,
                            0.47187414,
                            0.47612571,
                            0.47840925
                        ],
                        [
                            -0.19052026,
                            0.021190776,
                            -0.057383238,
                            -0.025173438,
                            -0.033463362,
                            -0.026734523,
                            -0.013809177,
                            0.00039009133
                        ]
                    ],
                    "sin_mean": [
                        [
                            0.12187848,
                            -0.33814945,
                            -0.29988062,
                            -0.23670241,
                            -0.18170236,
                            -0.14095236,
                            -0.10980461,
                            -0.085289236
                        ],
                        [
                            -0.014158407,
                            -0.29953902,
                            -0.036878408,
                            -0.057440754,
                            -0.076461265,
                            -0.096041633,
                            -0.10971082,
                            -0.11800483
                        ]
                    ],
                    "cos_deviation": [
                        [
                            0.22345853,
                            0.2238055,
                            0.19031151,
                            0.1769661,
                            0.17208562,
                            0.17052132,
                            0.17034615,
                            0.17075929
                        ],
                        [
                            0.24753113,
                            0.26588008,
                            0.21905213,
                            0.14483527,
                            0.1696824,
                            0.20417446,
                            0.22652011,
                            0.23939371
                        ]
                    ],
                    "sin_deviation": [
                        [
                            0.20424003,
                            0.18278814,
                            0.19321873,
                            0.20730674,
                            0.21345193,
                            0.21603056,
                            0.21704127,
                            0.21731613
                        ],
                        [
                            0.18729254,
                            0.14244479,
                            0.22704818,
                            0.2804094,
                            0.26553958,
                            0.2394137,
                            0.21786676,
                            0.2032194
                        ]
                    ],
                    "square_strain": [
                        0.22136018,
                        0.020798528,
                        0.0094790986,
                        0.005438849,
                        0.0035339692,
                        0.0024820854,
                        0.0018395596,
                        0.0014181806
                    ]
                }
            },
            "parameters-edge": {
                "sample": {
                    "distribution": {
                        "module": "numlpa.kits.distributions.wilkens",
                        "seed": 0,
                        "density": 8.0,
                        "nsub": 2,
                        "pairs": 1,
                        "side": 1
                    },
                    "region": {
                        "type": "square",
                        "side": 1
                    },
                    "dislocations": {
                        "senses": [
                            -1,
                            1,
                            -1,
                            1,
                            -1,
                            1,
                            -1,
                            1
                        ],
                        "positions": [
                            [
                                0.42221092576252406,
                                0.2102857904154225,
                                0.25563736068430426,
                                0.3918992945173863,
                                0.7382984770761779,
                                0.9540564425976676,
                                0.6409189221998519,
                                0.8091844983376658
                            ], [
                                0.37897720147015124,
                                0.12945837514648167,
                                0.7024670687252071,
                                0.6516563630394637,
                                0.2916910197275156,
                                0.25234342790869513,
                                0.877902102078612,
                                0.6252531706812203
                            ]
                        ]
                    }
                },
                "z_uvw": [ 1,-1,-2],
                "b_uvw": [ 1, 1, 0],
                "g_hkl": [ 2, 0, 0],
                "cell": 0.5,
                "step": 1,
                "range": 8,
                "absolute": true,
                "points": 10,
                "poisson": 0.345,
                "harmonics": [1, 3],
                "processes": 0,
                "replications": 1
            },
            "returns-edge": {
                "contrast": 0.26630959,
                "coefs": {
                    "harmonic": [
                        1,
                        3
                    ],
                    "variable": [
                        1,
                        2,
                        3,
                        4,
                        5,
                        6,
                        7,
                        8
                    ],
                    "cos_mean": [
                        [
                            0.042086059,
                            -0.11924117,
                            -0.015566555,
                            -0.2080626,
                            -0.22216936,
                            -0.16471877,
                            -0.10033985,
                            -0.044859458
                        ],
                        [
                            0.5901903,
                            0.4380715,
                            -0.094336065,
                            0.23991014,
                            0.10465812,
                            -0.23179815,
                            -0.22810228,
                            -0.096212875
                        ]
                    ],
                    "sin_mean": [
                        [
                            0.13581095,
                            -0.34291351,
                            -0.12565044,
                            -0.066795372,
                            0.090190799,
                            0.1833629,
                            0.2281333,
                            0.24646459
                        ],
                        [
                            0.16271057,
                            -0.26653898,
                            0.10350381,
                            0.20313232,
                            -0.29719811,
                            -0.1521546,
                            0.093801581,
                            0.20401841
                        ]
                    ],
                    "cos_deviation": [
                        [
                            0.24502336,
                            0.18565326,
                            0.27743618,
                            0.1783734,
                            0.17234124,
                            0.20436888,
                            0.22542718,
                            0.236002
                        ],
                        [
                            0.089716504,
                            0.15793156,
                            0.24420281,
                            0.23517505,
                            0.18301943,
                            0.27573761,
                            0.18801955,
                            0.13114909
                        ]
                    ],
                    "sin_deviation": [
                        [
                            0.19478698,
                            0.22880572,
                            0.14637668,
                            0.25180898,
                            0.25406522,
                            0.22838112,
                            0.20729519,
                            0.195006
                        ],
                        [
                            0.23339027,
                            0.22082268,
                            0.19596876,
                            0.18657635,
                            0.23785686,
                            0.12759557,
                            0.24200353,
                            0.2787685
                        ]
                    ],
                    "square_strain": [
                        0.021701355,
                        0.10369412,
                        0.029991786,
                        0.009466834,
                        0.0055566074,
                        0.0036453774,
                        0.0025730183,
                        0.0019123946
                    ]
                }
            },
            "parameters-mixed": {
                "sample": {
                    "distribution": {
                        "module": "numlpa.kits.distributions.wilkens",
                        "seed": 0,
                        "density": 8.0,
                        "nsub": 2,
                        "pairs": 1,
                        "side": 1
                    },
                    "region": {
                        "type": "square",
                        "side": 1
                    },
                    "dislocations": {
                        "senses": [
                            -1,
                            1,
                            -1,
                            1,
                            -1,
                            1,
                            -1,
                            1
                        ],
                        "positions": [
                            [
                                0.42221092576252406,
                                0.2102857904154225,
                                0.25563736068430426,
                                0.3918992945173863,
                                0.7382984770761779,
                                0.9540564425976676,
                                0.6409189221998519,
                                0.8091844983376658
                            ], [
                                0.37897720147015124,
                                0.12945837514648167,
                                0.7024670687252071,
                                0.6516563630394637,
                                0.2916910197275156,
                                0.25234342790869513,
                                0.877902102078612,
                                0.6252531706812203
                            ]
                        ]
                    }
                },
                "z_uvw": [-1,-2,-1],
                "b_uvw": [ 1, 1, 0],
                "g_hkl": [ 1, 3, 1],
                "cell": 0.5,
                "step": 1,
                "range": 8,
                "absolute": true,
                "points": 10,
                "poisson": 0.345,
                "harmonics": [1, 3],
                "processes": 0,
                "replications": 1
            },
            "returns-mixed": {
                "contrast": 0.02207684,
                "coefs": {
                    "harmonic": [
                        1,
                        3
                    ],
                    "variable": [
                        1,
                        2,
                        3,
                        4,
                        5,
                        6,
                        7,
                        8
                    ],
                    "cos_mean": [
                        [
                            -0.0013590942,
                            -0.51085565,
                            0.47596045,
                            0.024754318,
                            0.085713663,
                            -0.0011708004,
                            0.034159974,
                            0.11458068
                        ],
                        [
                            -0.43669733,
                            0.070554935,
                            -0.17300673,
                            0.22269444,
                            0.33086971,
                            -0.24923533,
                            -0.096852234,
                            -0.14064997
                        ]
                    ],
                    "sin_mean": [
                        [
                            0.35872746,
                            0.26860203,
                            0.29862869,
                            0.035921189,
                            -0.086672781,
                            0.70224302,
                            -0.10278601,
                            -0.017275275
                        ],
                        [
                            0.43492196,
                            0.018487554,
                            0.36434842,
                            -0.12634948,
                            0.3509777,
                            0.025841553,
                            -0.27489092,
                            0.32516426
                        ]
                    ],
                    "cos_deviation": [
                        [
                            0.23293176,
                            0.12942279,
                            0.21239323,
                            0.18981574,
                            0.2148822,
                            0.20474942,
                            0.20764899,
                            0.19687458
                        ],
                        [
                            0.18472106,
                            0.22830493,
                            0.19488177,
                            0.20351632,
                            0.13869309,
                            0.16023652,
                            0.21821465,
                            0.24018894
                        ]
                    ],
                    "sin_deviation": [
                        [
                            0.18131209,
                            0.22346742,
                            0.15270027,
                            0.25254638,
                            0.2287788,
                            0.093610957,
                            0.23602693,
                            0.24474003
                        ],
                        [
                            0.16700887,
                            0.21758879,
                            0.21389947,
                            0.22809079,
                            0.23978785,
                            0.26085562,
                            0.20949422,
                            0.17250464
                        ]
                    ],
                    "square_strain": [
                        0.098015593,
                        0.037420139,
                        0.0017679469,
                        0.0067226414,
                        0.0044163401,
                        0.00095258964,
                        0.002227831,
                        0.0009104389
                    ]
                }
            }
        }
    },
    "evaluators": {
        "cpu": {
            "parameters-screw": {
                "sample": {
                    "distribution": {
                        "module": "numlpa.kits.distributions.wilkens",
                        "seed": 0,
                        "density": 8.0,
                        "nsub": 2,
                        "pairs": 1,
                        "side": 1
                    },
                    "region": {
                        "type": "square",
                        "side": 1
                    },
                    "dislocations": {
                        "senses": [
                            -1,
                            1,
                            -1,
                            1,
                            -1,
                            1,
                            -1,
                            1
                        ],
                        "positions": [
                            [
                                0.42221092576252406,
                                0.2102857904154225,
                                0.25563736068430426,
                                0.3918992945173863,
                                0.7382984770761779,
                                0.9540564425976676,
                                0.6409189221998519,
                                0.8091844983376658
                            ], [
                                0.37897720147015124,
                                0.12945837514648167,
                                0.7024670687252071,
                                0.6516563630394637,
                                0.2916910197275156,
                                0.25234342790869513,
                                0.877902102078612,
                                0.6252531706812203
                            ]
                        ]
                    }
                },
                "z_uvw": [ 1, 1, 0],
                "b_uvw": [ 1, 1, 0],
                "g_hkl": [ 2, 0, 0],
                "cell": 10,
                "poisson": 0.345,
                "shear": 9.9,
                "core": 0.1,
                "absolute": true,
                "replicate": 3,
                "points": 10,
                "processes": 0
            },
            "returns-screw": {
                "module": "numlpa.kits.evaluators.cpu",
                "z_uvw": [ 1, 1, 0],
                "b_uvw": [ 1, 1, 0],
                "g_hkl": [ 2, 0, 0],
                "type": "screw",
                "cell": 10,
                "b_len": 7.0710678,
                "poisson": 0.345,
                "shear": 9.9,
                "square_strain": 10.504547,
                "core": 0.1,
                "energy_mean": 316.81399,
                "energy_deviation": 132.00463,
                "factor": 0.0031733259,
                "cutoff": 0.27328747,
                "samples": 1,
                "replicate": 3,
                "points": 10,
                "hidden": 1
            },
            "parameters-edge": {
                "sample": {
                    "distribution": {
                        "module": "numlpa.kits.distributions.wilkens",
                        "seed": 0,
                        "density": 8.0,
                        "nsub": 2,
                        "pairs": 1,
                        "side": 1
                    },
                    "region": {
                        "type": "square",
                        "side": 1
                    },
                    "dislocations": {
                        "senses": [
                            -1,
                            1,
                            -1,
                            1,
                            -1,
                            1,
                            -1,
                            1
                        ],
                        "positions": [
                            [
                                0.42221092576252406,
                                0.2102857904154225,
                                0.25563736068430426,
                                0.3918992945173863,
                                0.7382984770761779,
                                0.9540564425976676,
                                0.6409189221998519,
                                0.8091844983376658
                            ], [
                                0.37897720147015124,
                                0.12945837514648167,
                                0.7024670687252071,
                                0.6516563630394637,
                                0.2916910197275156,
                                0.25234342790869513,
                                0.877902102078612,
                                0.6252531706812203
                            ]
                        ]
                    }
                },
                "z_uvw": [ 1,-1,-2],
                "b_uvw": [ 1, 1, 0],
                "g_hkl": [ 2, 0, 0],
                "cell": 10,
                "poisson": 0.345,
                "shear": 9.9,
                "core": 0.1,
                "absolute": true,
                "replicate": 3,
                "points": 10,
                "processes": 0
            },
            "returns-edge": {
                "module": "numlpa.kits.evaluators.cpu",
                "z_uvw": [ 1,-1,-2],
                "b_uvw": [ 1, 1, 0],
                "g_hkl": [ 2, 0, 0],
                "type": "edge",
                "cell": 10,
                "b_len": 7.0710678,
                "poisson": 0.345,
                "shear": 9.9,
                "square_strain": 8.0463041,
                "core": 0.1,
                "energy_mean": 624.66352,
                "energy_deviation": 406.06265,
                "factor": 0.0020785285,
                "cutoff": 0.36633606,
                "samples": 1,
                "replicate": 3,
                "points": 10,
                "hidden": 1
            }
        }
    },
    "models": {
        "guw": {
            "parameters": {
                "transform": {
                    "metadata": {
                        "type": "fourier-transform",
                        "date": "2023-03-14T01:51:46+00:00",
                        "version": [1, 0, 0, "dev1", "g0cefacf.d20230311"]
                    },
                    "distribution": {
                        "module": "numlpa.kits.distributions.dipoles",
                        "seed": 0,
                        "density": 50000000000000.0,
                        "length": 1.4142135623730952e-07,
                        "nsub": 5,
                        "pairs": 4,
                        "side": 2e-06
                    },
                    "region": {
                        "type": "square",
                        "side": 2e-06
                    },
                    "diffraction": {
                        "module": "numlpa.kits.diffractometers.cpu",
                        "z_uvw": [1, 1, 0],
                        "x_uvw": [-1, 1, 0],
                        "b_uvw": [1, 1, 0],
                        "g_hkl": [2, 0, 0],
                        "type": "screw",
                        "cell": 4.046e-10,
                        "step": 1.5e-09,
                        "poisson": 0.345,
                        "contrast": 0.25,
                        "samples": 1,
                        "replicate": 1,
                        "duration": 0.06889724731445312,
                        "points": 1000,
                        "processes": 12
                    },
                    "coefficients": {
                        "harmonic": [1],
                        "variable": [
                            1.5e-09,
                            3e-09,
                            4.5e-09,
                            6e-09,
                            7.5e-09,
                            9e-09,
                            1.05e-08,
                            1.2e-08,
                            1.35e-08,
                            1.5e-08
                        ],
                        "cos_mean": [
                            [
                                0.9996093338436136,
                                0.998436089170523,
                                0.9963497361728764,
                                0.9936136367826619,
                                0.9905750663333311,
                                0.9871665853228859,
                                0.9833297247080127,
                                0.9790379561814676,
                                0.9742259752384476,
                                0.9686751743259805
                            ]
                        ],
                        "sin_mean": [
                            [
                                -0.0001962796572845584,
                                -0.000703945671519828,
                                -0.0013347116290003194,
                                -0.001649289012043436,
                                -0.0017665599986443179,
                                -0.0018360635605836706,
                                -0.0018737348194068685,
                                -0.001876813566560515,
                                -0.0018434978610726406,
                                -0.0016849978396338337
                            ]
                        ],
                        "cos_deviation": [
                            [
                                8.475473775419997e-05,
                                0.00030323144186747447,
                                0.0007863346319418425,
                                0.0013831457854226038,
                                0.001798354090104296,
                                0.002124305839065324,
                                0.0024401076372711455,
                                0.0027742438773389264,
                                0.0031497086064583603,
                                0.0036462341472244543
                            ]
                        ],
                        "sin_deviation": [
                            [
                                0.0008797487149472039,
                                0.0017415312213764655,
                                0.002582072737107706,
                                0.0032887882846959204,
                                0.003940030430224316,
                                0.004581057344616901,
                                0.0052062478179606625,
                                0.005812463233079339,
                                0.006399975498448102,
                                0.006954893526893589
                            ]
                        ]
                    }
                },
                "harmonic": 1,
                "parameters": [5e13, 100e-9, 1, 10e-9]
            },
            "returns": [
                0.99962901,
                0.99876154,
                0.9975372,
                0.99603079,
                0.99429481,
                0.99236997,
                0.99028965,
                0.98808231,
                0.98577285,
                0.98338358
            ]
        },
        "kr": {
            "parameters": {
                "transform": {
                    "metadata": {
                        "type": "fourier-transform",
                        "date": "2023-03-14T01:51:46+00:00",
                        "version": [1, 0, 0, "dev1", "g0cefacf.d20230311"]
                    },
                    "distribution": {
                        "module": "numlpa.kits.distributions.dipoles",
                        "seed": 0,
                        "density": 50000000000000.0,
                        "length": 1.4142135623730952e-07,
                        "nsub": 5,
                        "pairs": 4,
                        "side": 2e-06
                    },
                    "region": {
                        "type": "square",
                        "side": 2e-06
                    },
                    "diffraction": {
                        "module": "numlpa.kits.diffractometers.cpu",
                        "z_uvw": [1, 1, 0],
                        "x_uvw": [-1, 1, 0],
                        "b_uvw": [1, 1, 0],
                        "g_hkl": [2, 0, 0],
                        "type": "screw",
                        "cell": 4.046e-10,
                        "step": 1.5e-09,
                        "poisson": 0.345,
                        "contrast": 0.25,
                        "samples": 1,
                        "replicate": 1,
                        "duration": 0.06889724731445312,
                        "points": 1000,
                        "processes": 12
                    },
                    "coefficients": {
                        "harmonic": [1],
                        "variable": [
                            1.5e-09,
                            3e-09,
                            4.5e-09,
                            6e-09,
                            7.5e-09,
                            9e-09,
                            1.05e-08,
                            1.2e-08,
                            1.35e-08,
                            1.5e-08
                        ],
                        "cos_mean": [
                            [
                                0.9996093338436136,
                                0.998436089170523,
                                0.9963497361728764,
                                0.9936136367826619,
                                0.9905750663333311,
                                0.9871665853228859,
                                0.9833297247080127,
                                0.9790379561814676,
                                0.9742259752384476,
                                0.9686751743259805
                            ]
                        ],
                        "sin_mean": [
                            [
                                -0.0001962796572845584,
                                -0.000703945671519828,
                                -0.0013347116290003194,
                                -0.001649289012043436,
                                -0.0017665599986443179,
                                -0.0018360635605836706,
                                -0.0018737348194068685,
                                -0.001876813566560515,
                                -0.0018434978610726406,
                                -0.0016849978396338337
                            ]
                        ],
                        "cos_deviation": [
                            [
                                8.475473775419997e-05,
                                0.00030323144186747447,
                                0.0007863346319418425,
                                0.0013831457854226038,
                                0.001798354090104296,
                                0.002124305839065324,
                                0.0024401076372711455,
                                0.0027742438773389264,
                                0.0031497086064583603,
                                0.0036462341472244543
                            ]
                        ],
                        "sin_deviation": [
                            [
                                0.0008797487149472039,
                                0.0017415312213764655,
                                0.002582072737107706,
                                0.0032887882846959204,
                                0.003940030430224316,
                                0.004581057344616901,
                                0.0052062478179606625,
                                0.005812463233079339,
                                0.006399975498448102,
                                0.006954893526893589
                            ]
                        ]
                    }
                },
                "harmonic": 1,
                "parameters": [5e13, 100e-9]
            },
            "returns": [
                0.99959838,
                0.99863912,
                0.99726212,
                0.99554264,
                0.99353371,
                0.99127653,
                0.98880482,
                0.98614721,
                0.98332849,
                0.98037055
            ]
        },
        "wilkens": {
            "parameters": {
                "transform": {
                    "metadata": {
                        "type": "fourier-transform",
                        "date": "2023-03-14T01:51:46+00:00",
                        "version": [1, 0, 0, "dev1", "g0cefacf.d20230311"]
                    },
                    "distribution": {
                        "module": "numlpa.kits.distributions.dipoles",
                        "seed": 0,
                        "density": 50000000000000.0,
                        "length": 1.4142135623730952e-07,
                        "nsub": 5,
                        "pairs": 4,
                        "side": 2e-06
                    },
                    "region": {
                        "type": "square",
                        "side": 2e-06
                    },
                    "diffraction": {
                        "module": "numlpa.kits.diffractometers.cpu",
                        "z_uvw": [1, 1, 0],
                        "x_uvw": [-1, 1, 0],
                        "b_uvw": [1, 1, 0],
                        "g_hkl": [2, 0, 0],
                        "type": "screw",
                        "cell": 4.046e-10,
                        "step": 1.5e-09,
                        "poisson": 0.345,
                        "contrast": 0.25,
                        "samples": 1,
                        "replicate": 1,
                        "duration": 0.06889724731445312,
                        "points": 1000,
                        "processes": 12
                    },
                    "coefficients": {
                        "harmonic": [1],
                        "variable": [
                            1.5e-09,
                            3e-09,
                            4.5e-09,
                            6e-09,
                            7.5e-09,
                            9e-09,
                            1.05e-08,
                            1.2e-08,
                            1.35e-08,
                            1.5e-08
                        ],
                        "cos_mean": [
                            [
                                0.9996093338436136,
                                0.998436089170523,
                                0.9963497361728764,
                                0.9936136367826619,
                                0.9905750663333311,
                                0.9871665853228859,
                                0.9833297247080127,
                                0.9790379561814676,
                                0.9742259752384476,
                                0.9686751743259805
                            ]
                        ],
                        "sin_mean": [
                            [
                                -0.0001962796572845584,
                                -0.000703945671519828,
                                -0.0013347116290003194,
                                -0.001649289012043436,
                                -0.0017665599986443179,
                                -0.0018360635605836706,
                                -0.0018737348194068685,
                                -0.001876813566560515,
                                -0.0018434978610726406,
                                -0.0016849978396338337
                            ]
                        ],
                        "cos_deviation": [
                            [
                                8.475473775419997e-05,
                                0.00030323144186747447,
                                0.0007863346319418425,
                                0.0013831457854226038,
                                0.001798354090104296,
                                0.002124305839065324,
                                0.0024401076372711455,
                                0.0027742438773389264,
                                0.0031497086064583603,
                                0.0036462341472244543
                            ]
                        ],
                        "sin_deviation": [
                            [
                                0.0008797487149472039,
                                0.0017415312213764655,
                                0.002582072737107706,
                                0.0032887882846959204,
                                0.003940030430224316,
                                0.004581057344616901,
                                0.0052062478179606625,
                                0.005812463233079339,
                                0.006399975498448102,
                                0.006954893526893589
                            ]
                        ]
                    }
                },
                "harmonic": 1,
                "parameters": [5e13, 100e-9]
            },
            "returns": [
                0.99953565,
                0.9983884,
                0.99669873,
                0.99454266,
                0.99197411,
                0.98903532,
                0.98576114,
                0.98218136,
                0.97832201,
                0.9742062
            ]
        }
    }
}
